EDA
…
diab_data <- read_csv("diabetes_binary_health_indicators_BRFSS2015.csv")

Rows: 253680 Columns: 22
── Column specification ────────────────────────────────────────────────────────
Delimiter: ","
dbl (22): Diabetes_binary, HighBP, HighChol, CholCheck, BMI, Smoker, Stroke,...

ℹ Use `spec()` to retrieve the full column specification for this data.
ℹ Specify the column types or set `show_col_types = FALSE` to quiet this message.

diab_data

# A tibble: 253,680 × 22
   Diabetes_binary HighBP HighChol CholCheck   BMI Smoker Stroke
             <dbl>  <dbl>    <dbl>     <dbl> <dbl>  <dbl>  <dbl>
 1               0      1        1         1    40      1      0
 2               0      0        0         0    25      1      0
 3               0      1        1         1    28      0      0
 4               0      1        0         1    27      0      0
 5               0      1        1         1    24      0      0
 6               0      1        1         1    25      1      0
 7               0      1        0         1    30      1      0
 8               0      1        1         1    25      1      0
 9               1      1        1         1    30      1      0
10               0      0        0         1    24      0      0
# ℹ 253,670 more rows
# ℹ 15 more variables: HeartDiseaseorAttack <dbl>, PhysActivity <dbl>,
#   Fruits <dbl>, Veggies <dbl>, HvyAlcoholConsump <dbl>, AnyHealthcare <dbl>,
#   NoDocbcCost <dbl>, GenHlth <dbl>, MentHlth <dbl>, PhysHlth <dbl>,
#   DiffWalk <dbl>, Sex <dbl>, Age <dbl>, Education <dbl>, Income <dbl>
…
                           labels = c("no diabetes", "diabetes")),
         smoker = factor(Smoker, levels = c(0, 1), 
                         labels = c("no", "yes")),
         genHlth = factor(GenHlth, levels  = c(1, 2, 3, 4, 5), 
                          labels = c("excellent", "very good", "good", "fair", "poor")),
         sex = factor(Sex, levels = c(0, 1), 
                      labels = c("female", "Male")),
         age = factor(Age, levels = c(1, 2, 3, 4, 5, 6, 7, 8, 9, 10, 11, 12, 13), 
                      labels = c("18-24", "25-29", "30-34", "35-39", "40-44", "45-49", "50-54", "55-59", "60-64", "65-69", "70-74", "75-79", "80+")),
         income = factor(Income, levels = c(1, 2, 3, 4, 5, 6, 7, 8),
                         labels = c("<10", "10-15", "15-20", "20-25", "25-35", "35-50", "50-75", "75+"))) |>
  select(diab_bin, smoker, genHlth, sex, age, income) 
diab_data

# A tibble: 253,680 × 6
   diab_bin    smoker genHlth   sex    age   income
   <fct>       <fct>  <fct>     <fct>  <fct> <fct> 
 1 no diabetes yes    poor      female 60-64 15-20 
 2 no diabetes yes    good      female 50-54 <10   
 3 no diabetes no     poor      female 60-64 75+   
 4 no diabetes no     very good female 70-74 35-50 
 5 no diabetes no     very good female 70-74 20-25 
 6 no diabetes yes    very good Male   65-69 75+   
 7 no diabetes yes    good      female 60-64 50-75 
 8 no diabetes yes    good      female 70-74 20-25 
 9 diabetes    yes    poor      female 60-64 <10   
10 no diabetes no     very good Male   55-59 15-20 
# ℹ 253,670 more rows
…
